{
    "data": "{\"transactionId\":\"11b4375fa6e4a213ac0bacfabf6f0b6b7e13823d7163c479c883be2fa3635311\"}",
    "fielderror": null,
    "message": "Transaction sent to network successfully, please wait for five minutes to get your transaction confirmed.",
    "isSuccess": true,
    "status": "OK",
    "timestamp": 1550473504815
}