{
    "data": {
        "countries": [
            {
                "address": "ANgjT4Z57atKwZfxtbG2sDFPXVc1DifoTGIN",
                "kycDocumentTypes": [
                    {
                        "kycDocumentMetas": [
                            {
                                "kycDocumentMetaId": 1,
                                "channelData": "{\"fee\": 0.001, \"uuid\": \"dddbfdbd-2c5a-43a0-a1c3-ebe54f88c5751545398379475\", \"address\": \"AEqFopYGYHGCo6jt7k5AV8DLtuaMdkmX76IN\", \"channel\": \"indiaadhaar\", \"countryCode\": \"IN\"}",
                                "description": "This is aadhar",
                                "documentName": "Aadhar",
                                "kycUserDocument": null,
                                "isMandatory": false
                            }
                        ],
                        "documentType": "Address",
                        "kycDocumentTypeId": 2
                    },
                    {
                        "kycDocumentMetas": [
                            {
                                "kycDocumentMetaId": 2,
                                "channelData": "{\"fee\": 0.001, \"uuid\": \"dddbfdbd-2c5a-43a0-a1c3-ebe54f88c5751545398379475\", \"address\": \"AEqFopYGYHGCo6jt7k5AV8DLtuaMdkmX76IN\", \"channel\": \"indiaadhaar\", \"countryCode\": \"IN\"}",
                                "description": "This is voter card",
                                "documentName": "Voter card",
                                "kycUserDocument": null,
                                "isMandatory": true
                            }
                        ],
                        "documentType": "Identity",
                        "kycDocumentTypeId": 1
                    },
                    {
                        "kycDocumentMetas": [
                            {
                                "kycDocumentMetaId": 3,
                                "channelData": "{\"fee\": 0.001, \"uuid\": \"dddbfdbd-2c5a-43a0-a1c3-ebe54f88c5751545398379475\", \"address\": \"AEqFopYGYHGCo6jt7k5AV8DLtuaMdkmX76IN\", \"channel\": \"indiaadhaar\", \"countryCode\": \"IN\"}",
                                "description": "This is pan card",
                                "documentName": "Pancard",
                                "kycUserDocument": null,
                                "isMandatory": false
                            }
                        ],
                        "documentType": "Finance",
                        "kycDocumentTypeId": 4
                    },
                    {
                        "kycDocumentMetas": [
                            {
                                "kycDocumentMetaId": 4,
                                "channelData": "{\"fee\": 0.001, \"uuid\": \"dddbfdbd-2c5a-43a0-a1c3-ebe54f88c5751545398379475\", \"address\": \"AEqFopYGYHGCo6jt7k5AV8DLtuaMdkmX76IN\", \"channel\": \"indiaadhaar\", \"countryCode\": \"IN\"}",
                                "description": "This is graduation",
                                "documentName": "Graduation",
                                "kycUserDocument": null,
                                "isMandatory": false
                            }
                        ],
                        "documentType": "Education",
                        "kycDocumentTypeId": 3
                    }
                ],
                "countryCode": "IN",
                "blockchainStatus": null,
                "attached": "belrium_primary",
                "countryName": "India",
                "blockchainEnabledTransaction": false,
                "countryDialCode": "91",
                "countryID": 105,
                "status": "INACTIVE"
            }
        ]
    },
    "fielderror": null,
    "message": "User documents fetched successfully with there document meta data.",
    "isSuccess": true,
    "status": "OK",
    "timestamp": 1550237239587
}